<?xml version="1.0" encoding="UTF-8" standalone="no"?>
<svg
   width="120mm"
   height="90mm"
   viewBox="0 0 12000 9000"
   version="1.1"
   stroke-width="28.222"
   stroke-linejoin="round"
   xml:space="preserve"
   id="svg218"
   sodipodi:docname="blast-from-the-past.svg"
   inkscape:version="1.2.2 (b0a8486541, 2022-12-01)"
   xmlns:inkscape="http://www.inkscape.org/namespaces/inkscape"
   xmlns:sodipodi="http://sodipodi.sourceforge.net/DTD/sodipodi-0.dtd"
   xmlns="http://www.w3.org/2000/svg"
   xmlns:svg="http://www.w3.org/2000/svg"><defs
   id="defs222" /><sodipodi:namedview
   id="namedview220"
   pagecolor="#ffffff"
   bordercolor="#000000"
   borderopacity="0.25"
   inkscape:showpageshadow="2"
   inkscape:pageopacity="1"
   inkscape:pagecheckerboard="0"
   inkscape:deskcolor="#d1d1d1"
   inkscape:document-units="mm"
   showgrid="false"
   inkscape:zoom="1.9623523"
   inkscape:cx="229.82622"
   inkscape:cy="175.80941"
   inkscape:window-width="1916"
   inkscape:window-height="1143"
   inkscape:window-x="0"
   inkscape:window-y="0"
   inkscape:window-maximized="0"
   inkscape:current-layer="svg218" />
 
 <rect
   style="fill:#000000;fill-opacity:1;stroke:none;stroke-width:132.292;stroke-linecap:round;stroke-linejoin:bevel;stroke-opacity:0.290914"
   id="rect393"
   width="15273.306"
   height="11533.261"
   x="-1722.8073"
   y="-1111.0835" /><path
   fill="none"
   stroke="rgb(179,179,179)"
   stroke-linejoin="round"
   d="M 6752,7184 L 1965,7184 1965,367 11539,367 11539,7184 6752,7184 Z"
   id="path4" />
 <path
   fill="none"
   stroke="rgb(179,179,179)"
   stroke-linejoin="round"
   d="M 11539,7183 L 1965,7183"
   id="path6" />
 <path
   fill="none"
   stroke="rgb(179,179,179)"
   stroke-linejoin="round"
   d="M 11539,6046 L 1965,6046"
   id="path8" />
 <path
   fill="none"
   stroke="rgb(179,179,179)"
   stroke-linejoin="round"
   d="M 11539,4910 L 1965,4910"
   id="path10" />
 <path
   fill="none"
   stroke="rgb(179,179,179)"
   stroke-linejoin="round"
   d="M 11539,3774 L 1965,3774"
   id="path12" />
 <path
   fill="none"
   stroke="rgb(179,179,179)"
   stroke-linejoin="round"
   d="M 11539,2638 L 1965,2638"
   id="path14" />
 <path
   fill="none"
   stroke="rgb(179,179,179)"
   stroke-linejoin="round"
   d="M 11539,1502 L 1965,1502"
   id="path16" />
 <path
   fill="none"
   stroke="rgb(179,179,179)"
   stroke-linejoin="round"
   d="M 11539,365 L 1965,365"
   id="path18" />
 <path
   fill="none"
   stroke="rgb(179,179,179)"
   stroke-linejoin="round"
   d="M 1965,7333 L 1965,7183"
   id="path20" />
 <path
   fill="none"
   stroke="rgb(179,179,179)"
   stroke-linejoin="round"
   d="M 1965,7333 L 1965,7183"
   id="path22" />
 <path
   fill="none"
   stroke="rgb(179,179,179)"
   stroke-linejoin="round"
   d="M 3560,7333 L 3560,7183"
   id="path24" />
 <path
   fill="none"
   stroke="rgb(179,179,179)"
   stroke-linejoin="round"
   d="M 3560,7333 L 3560,7183"
   id="path26" />
 <path
   fill="none"
   stroke="rgb(179,179,179)"
   stroke-linejoin="round"
   d="M 5156,7333 L 5156,7183"
   id="path28" />
 <path
   fill="none"
   stroke="rgb(179,179,179)"
   stroke-linejoin="round"
   d="M 5156,7333 L 5156,7183"
   id="path30" />
 <path
   fill="none"
   stroke="rgb(179,179,179)"
   stroke-linejoin="round"
   d="M 6751,7333 L 6751,7183"
   id="path32" />
 <path
   fill="none"
   stroke="rgb(179,179,179)"
   stroke-linejoin="round"
   d="M 6751,7333 L 6751,7183"
   id="path34" />
 <path
   fill="none"
   stroke="rgb(179,179,179)"
   stroke-linejoin="round"
   d="M 8347,7333 L 8347,7183"
   id="path36" />
 <path
   fill="none"
   stroke="rgb(179,179,179)"
   stroke-linejoin="round"
   d="M 8347,7333 L 8347,7183"
   id="path38" />
 <path
   fill="none"
   stroke="rgb(179,179,179)"
   stroke-linejoin="round"
   d="M 9943,7333 L 9943,7183"
   id="path40" />
 <path
   fill="none"
   stroke="rgb(179,179,179)"
   stroke-linejoin="round"
   d="M 9943,7333 L 9943,7183"
   id="path42" />
 <path
   fill="none"
   stroke="rgb(179,179,179)"
   stroke-linejoin="round"
   d="M 11539,7333 L 11539,7183"
   id="path44" />
 <path
   fill="none"
   stroke="rgb(179,179,179)"
   stroke-linejoin="round"
   d="M 11539,7333 L 11539,7183"
   id="path46" />
 <path
   fill="none"
   stroke="rgb(179,179,179)"
   stroke-linejoin="round"
   d="M 1965,7183 L 11539,7183"
   id="path48" />
 <path
   fill="none"
   stroke="rgb(179,179,179)"
   stroke-linejoin="round"
   d="M 1815,7183 L 1965,7183"
   id="path50" />
 <path
   fill="none"
   stroke="rgb(179,179,179)"
   stroke-linejoin="round"
   d="M 1815,7183 L 1965,7183"
   id="path52" />
 <path
   fill="none"
   stroke="rgb(179,179,179)"
   stroke-linejoin="round"
   d="M 1815,6046 L 1965,6046"
   id="path54" />
 <path
   fill="none"
   stroke="rgb(179,179,179)"
   stroke-linejoin="round"
   d="M 1815,6046 L 1965,6046"
   id="path56" />
 <path
   fill="none"
   stroke="rgb(179,179,179)"
   stroke-linejoin="round"
   d="M 1815,4910 L 1965,4910"
   id="path58" />
 <path
   fill="none"
   stroke="rgb(179,179,179)"
   stroke-linejoin="round"
   d="M 1815,4910 L 1965,4910"
   id="path60" />
 <path
   fill="none"
   stroke="rgb(179,179,179)"
   stroke-linejoin="round"
   d="M 1815,3774 L 1965,3774"
   id="path62" />
 <path
   fill="none"
   stroke="rgb(179,179,179)"
   stroke-linejoin="round"
   d="M 1815,3774 L 1965,3774"
   id="path64" />
 <path
   fill="none"
   stroke="rgb(179,179,179)"
   stroke-linejoin="round"
   d="M 1815,2638 L 1965,2638"
   id="path66" />
 <path
   fill="none"
   stroke="rgb(179,179,179)"
   stroke-linejoin="round"
   d="M 1815,2638 L 1965,2638"
   id="path68" />
 <path
   fill="none"
   stroke="rgb(179,179,179)"
   stroke-linejoin="round"
   d="M 1815,1502 L 1965,1502"
   id="path70" />
 <path
   fill="none"
   stroke="rgb(179,179,179)"
   stroke-linejoin="round"
   d="M 1815,1502 L 1965,1502"
   id="path72" />
 <path
   fill="none"
   stroke="rgb(179,179,179)"
   stroke-linejoin="round"
   d="M 1815,365 L 1965,365"
   id="path74" />
 <path
   fill="none"
   stroke="rgb(179,179,179)"
   stroke-linejoin="round"
   d="M 1815,365 L 1965,365"
   id="path76" />
 <path
   fill="none"
   stroke="rgb(179,179,179)"
   stroke-linejoin="round"
   d="M 1965,7183 L 1965,366"
   id="path78" />
 <path
   fill="none"
   stroke="rgb(0,69,134)"
   stroke-width="80"
   stroke-linejoin="round"
   d="M 1965,7183 L 9943,1502"
   id="path80" />
 <path
   fill="rgb(0,69,134)"
   stroke="none"
   d="M 1840,7058 L 1840,7308 2090,7308 2090,7058 1840,7058 Z"
   id="path82" />
 <path
   fill="none"
   stroke="rgb(0,69,134)"
   stroke-linejoin="round"
   d="M 1840,7058 L 1840,7308 2090,7308 2090,7058 1840,7058 Z"
   id="path84" />
 <path
   fill="rgb(0,69,134)"
   stroke="none"
   d="M 9818,1377 L 9818,1627 10068,1627 10068,1377 9818,1377 Z"
   id="path86" />
 <path
   fill="none"
   stroke="rgb(0,69,134)"
   stroke-linejoin="round"
   d="M 9818,1377 L 9818,1627 10068,1627 10068,1377 9818,1377 Z"
   id="path88" />
 <text
   class="SVGTextShape"
   id="text96"
   style="fill:#ffffff;fill-opacity:1"><tspan
     class="TextParagraph"
     id="tspan94"
     style="fill:#ffffff;fill-opacity:1"><tspan
       class="TextPosition"
       x="1872"
       y="7751"
       id="tspan92"
       style="fill:#ffffff;fill-opacity:1"><tspan
         font-family="Liberation Sans, sans-serif"
         font-size="353px"
         font-weight="400"
         fill="rgb(0,0,0)"
         stroke="none"
         style="white-space:pre;fill:#ffffff;fill-opacity:1"
         id="tspan90">0</tspan></tspan></tspan></text>
 <text
   class="SVGTextShape"
   id="text104"
   style="fill:#ffffff;fill-opacity:1"><tspan
     class="TextParagraph"
     id="tspan102"
     style="fill:#ffffff;fill-opacity:1"><tspan
       class="TextPosition"
       x="3322"
       y="7751"
       id="tspan100"
       style="fill:#ffffff;fill-opacity:1"><tspan
         font-family="Liberation Sans, sans-serif"
         font-size="353px"
         font-weight="400"
         fill="rgb(0,0,0)"
         stroke="none"
         style="white-space:pre;fill:#ffffff;fill-opacity:1"
         id="tspan98">0.2</tspan></tspan></tspan></text>
 <text
   class="SVGTextShape"
   id="text112"
   style="fill:#ffffff;fill-opacity:1"><tspan
     class="TextParagraph"
     id="tspan110"
     style="fill:#ffffff;fill-opacity:1"><tspan
       class="TextPosition"
       x="4918"
       y="7751"
       id="tspan108"
       style="fill:#ffffff;fill-opacity:1"><tspan
         font-family="Liberation Sans, sans-serif"
         font-size="353px"
         font-weight="400"
         fill="rgb(0,0,0)"
         stroke="none"
         style="white-space:pre;fill:#ffffff;fill-opacity:1"
         id="tspan106">0.4</tspan></tspan></tspan></text>
 <text
   class="SVGTextShape"
   id="text120"
   style="fill:#ffffff;fill-opacity:1"><tspan
     class="TextParagraph"
     id="tspan118"
     style="fill:#ffffff;fill-opacity:1"><tspan
       class="TextPosition"
       x="6513"
       y="7751"
       id="tspan116"
       style="fill:#ffffff;fill-opacity:1"><tspan
         font-family="Liberation Sans, sans-serif"
         font-size="353px"
         font-weight="400"
         fill="rgb(0,0,0)"
         stroke="none"
         style="white-space:pre;fill:#ffffff;fill-opacity:1"
         id="tspan114">0.6</tspan></tspan></tspan></text>
 <text
   class="SVGTextShape"
   id="text128"
   style="fill:#ffffff;fill-opacity:1"><tspan
     class="TextParagraph"
     id="tspan126"
     style="fill:#ffffff;fill-opacity:1"><tspan
       class="TextPosition"
       x="8109"
       y="7751"
       id="tspan124"
       style="fill:#ffffff;fill-opacity:1"><tspan
         font-family="Liberation Sans, sans-serif"
         font-size="353px"
         font-weight="400"
         fill="rgb(0,0,0)"
         stroke="none"
         style="white-space:pre;fill:#ffffff;fill-opacity:1"
         id="tspan122">0.8</tspan></tspan></tspan></text>
 <text
   class="SVGTextShape"
   id="text136"
   style="fill:#ffffff;fill-opacity:1"><tspan
     class="TextParagraph"
     id="tspan134"
     style="fill:#ffffff;fill-opacity:1"><tspan
       class="TextPosition"
       x="9850"
       y="7751"
       id="tspan132"
       style="fill:#ffffff;fill-opacity:1"><tspan
         font-family="Liberation Sans, sans-serif"
         font-size="353px"
         font-weight="400"
         fill="rgb(0,0,0)"
         stroke="none"
         style="white-space:pre;fill:#ffffff;fill-opacity:1"
         id="tspan130">1</tspan></tspan></tspan></text>
 <text
   class="SVGTextShape"
   id="text144"
   style="fill:#ffffff;fill-opacity:1"><tspan
     class="TextParagraph"
     id="tspan142"
     style="fill:#ffffff;fill-opacity:1"><tspan
       class="TextPosition"
       x="11301"
       y="7751"
       id="tspan140"
       style="fill:#ffffff;fill-opacity:1"><tspan
         font-family="Liberation Sans, sans-serif"
         font-size="353px"
         font-weight="400"
         fill="rgb(0,0,0)"
         stroke="none"
         style="white-space:pre;fill:#ffffff;fill-opacity:1"
         id="tspan138">1.2</tspan></tspan></tspan></text>
 <text
   class="SVGTextShape"
   id="text152"
   style="stroke-width:28.20000044;stroke-dasharray:none;fill:#ffffff;fill-opacity:1"><tspan
     class="TextParagraph"
     id="tspan150"
     style="stroke-width:28.20000044;stroke-dasharray:none;fill:#ffffff;fill-opacity:1"><tspan
       class="TextPosition"
       x="1530"
       y="7303"
       id="tspan148"
       style="stroke-width:28.20000044;stroke-dasharray:none;fill:#ffffff;fill-opacity:1"><tspan
         font-family="Liberation Sans, sans-serif"
         font-size="353px"
         font-weight="400"
         fill="rgb(0,0,0)"
         stroke="none"
         style="white-space:pre;stroke-width:28.20000044;stroke-dasharray:none;fill:#ffffff;fill-opacity:1"
         id="tspan146">0</tspan></tspan></tspan></text>
 <text
   class="SVGTextShape"
   id="text160"
   style="stroke-width:28.20000044;stroke-dasharray:none;fill:#ffffff;fill-opacity:1"><tspan
     class="TextParagraph"
     id="tspan158"
     style="stroke-width:28.20000044;stroke-dasharray:none;fill:#ffffff;fill-opacity:1"><tspan
       class="TextPosition"
       x="1239"
       y="6166"
       id="tspan156"
       style="stroke-width:28.20000044;stroke-dasharray:none;fill:#ffffff;fill-opacity:1"><tspan
         font-family="Liberation Sans, sans-serif"
         font-size="353px"
         font-weight="400"
         fill="rgb(0,0,0)"
         stroke="none"
         style="white-space:pre;stroke-width:28.20000044;stroke-dasharray:none;fill:#ffffff;fill-opacity:1"
         id="tspan154">0.2</tspan></tspan></tspan></text>
 <text
   class="SVGTextShape"
   id="text168"
   style="stroke-width:28.20000044;stroke-dasharray:none;fill:#ffffff;fill-opacity:1"><tspan
     class="TextParagraph"
     id="tspan166"
     style="stroke-width:28.20000044;stroke-dasharray:none;fill:#ffffff;fill-opacity:1"><tspan
       class="TextPosition"
       x="1239"
       y="5030"
       id="tspan164"
       style="stroke-width:28.20000044;stroke-dasharray:none;fill:#ffffff;fill-opacity:1"><tspan
         font-family="Liberation Sans, sans-serif"
         font-size="353px"
         font-weight="400"
         fill="rgb(0,0,0)"
         stroke="none"
         style="white-space:pre;stroke-width:28.20000044;stroke-dasharray:none;fill:#ffffff;fill-opacity:1"
         id="tspan162">0.4</tspan></tspan></tspan></text>
 <text
   class="SVGTextShape"
   id="text176"
   style="stroke-width:28.20000044;stroke-dasharray:none;fill:#ffffff;fill-opacity:1"><tspan
     class="TextParagraph"
     id="tspan174"
     style="stroke-width:28.20000044;stroke-dasharray:none;fill:#ffffff;fill-opacity:1"><tspan
       class="TextPosition"
       x="1239"
       y="3894"
       id="tspan172"
       style="stroke-width:28.20000044;stroke-dasharray:none;fill:#ffffff;fill-opacity:1"><tspan
         font-family="Liberation Sans, sans-serif"
         font-size="353px"
         font-weight="400"
         fill="rgb(0,0,0)"
         stroke="none"
         style="white-space:pre;stroke-width:28.20000044;stroke-dasharray:none;fill:#ffffff;fill-opacity:1"
         id="tspan170">0.6</tspan></tspan></tspan></text>
 <text
   class="SVGTextShape"
   id="text184"
   style="stroke-width:28.20000044;stroke-dasharray:none;fill:#ffffff;fill-opacity:1"><tspan
     class="TextParagraph"
     id="tspan182"
     style="stroke-width:28.20000044;stroke-dasharray:none;fill:#ffffff;fill-opacity:1"><tspan
       class="TextPosition"
       x="1239"
       y="2758"
       id="tspan180"
       style="stroke-width:28.20000044;stroke-dasharray:none;fill:#ffffff;fill-opacity:1"><tspan
         font-family="Liberation Sans, sans-serif"
         font-size="353px"
         font-weight="400"
         fill="rgb(0,0,0)"
         stroke="none"
         style="white-space:pre;stroke-width:28.20000044;stroke-dasharray:none;fill:#ffffff;fill-opacity:1"
         id="tspan178">0.8</tspan></tspan></tspan></text>
 <text
   class="SVGTextShape"
   id="text192"
   style="stroke-width:28.20000044;stroke-dasharray:none;fill:#ffffff;fill-opacity:1"><tspan
     class="TextParagraph"
     id="tspan190"
     style="stroke-width:28.20000044;stroke-dasharray:none;fill:#ffffff;fill-opacity:1"><tspan
       class="TextPosition"
       x="1530"
       y="1622"
       id="tspan188"
       style="stroke-width:28.20000044;stroke-dasharray:none;fill:#ffffff;fill-opacity:1"><tspan
         font-family="Liberation Sans, sans-serif"
         font-size="353px"
         font-weight="400"
         fill="rgb(0,0,0)"
         stroke="none"
         style="white-space:pre;stroke-width:28.20000044;stroke-dasharray:none;fill:#ffffff;fill-opacity:1"
         id="tspan186">1</tspan></tspan></tspan></text>
 <text
   class="SVGTextShape"
   id="text200"
   style="stroke-width:28.20000044;stroke-dasharray:none;fill:#ffffff;fill-opacity:1"><tspan
     class="TextParagraph"
     id="tspan198"
     style="stroke-width:28.20000044;stroke-dasharray:none;fill:#ffffff;fill-opacity:1"><tspan
       class="TextPosition"
       x="1239"
       y="485"
       id="tspan196"
       style="stroke-width:28.20000044;stroke-dasharray:none;fill:#ffffff;fill-opacity:1"><tspan
         font-family="Liberation Sans, sans-serif"
         font-size="353px"
         font-weight="400"
         fill="rgb(0,0,0)"
         stroke="none"
         style="white-space:pre;stroke-width:28.20000044;stroke-dasharray:none;fill:#ffffff;fill-opacity:1"
         id="tspan194">1.2</tspan></tspan></tspan></text>
 <text
   class="SVGTextShape"
   id="text208"
   style="font-size:635px;fill:#ffffff;fill-opacity:1"
   x="132.63606"
   y="-1105.6981"
   transform="rotate(10)"><tspan
     class="TextPosition"
     x="5873.6357"
     y="7291.3018"
     id="tspan204"
     style="font-size:635px;white-space:pre;fill:#ffffff;fill-opacity:1">Containers</tspan></text><text
   class="SVGTextShape"
   id="text208-3"
   x="-5064.9971"
   y="-4218.4146"
   style="stroke-width:28.20000044;stroke-dasharray:none;fill:#ffffff;fill-opacity:1"><tspan
     class="TextParagraph"
     id="tspan206-6"
     style="stroke-width:28.20000044;stroke-dasharray:none;fill:#ffffff;fill-opacity:1"><tspan
       class="TextPosition"
       x="676.00275"
       y="4178.5854"
       id="tspan204-7"
       style="stroke-width:28.20000044;stroke-dasharray:none;fill:#ffffff;fill-opacity:1"><tspan
         font-family="'Liberation Sans', sans-serif"
         font-size="318px"
         font-weight="400"
         fill="#000000"
         stroke="none"
         style="white-space:pre;stroke-width:28.20000044;stroke-dasharray:none;fill:#ffffff;fill-opacity:1"
         id="tspan202-5">More</tspan></tspan></tspan></text><text
   class="SVGTextShape"
   id="text208-3-3"
   x="-5468.0093"
   y="-3922.5251"
   style="stroke-width:28.20000044;stroke-dasharray:none;fill:#ffffff;fill-opacity:1"><tspan
     class="TextParagraph"
     id="tspan206-6-6"
     style="stroke-width:28.20000044;stroke-dasharray:none;fill:#ffffff;fill-opacity:1"><tspan
       class="TextPosition"
       x="272.99054"
       y="4474.4746"
       id="tspan204-7-7"
       style="stroke-width:28.20000044;stroke-dasharray:none;fill:#ffffff;fill-opacity:1"><tspan
         font-family="'Liberation Sans', sans-serif"
         font-size="318px"
         font-weight="400"
         fill="#000000"
         stroke="none"
         style="white-space:pre;stroke-width:28.20000044;stroke-dasharray:none;fill:#ffffff;fill-opacity:1"
         id="tspan202-5-5">Containers</tspan></tspan></tspan></text>
 
</svg>
